{"pagination":{"page":1,"total_pages":2,"total_count":11},"events":[{"id":7869,"name":"","description":"","start_time":"2017-07-17T11:00:00.000-07:00","end_time":"2017-07-17T14:00:00.000-07:00","created_at":"2017-06-23T13:04:42.555-07:00","updated_at":"2017-06-23T13:05:30.057-07:00","event_id":43,"bookings":[{"id":6058,"status":"approved","paid":false,"truck":{"name":"Chick'n Fix","trailer":false,"food_categories":[],"id":"chickn-fix","uid":21,"featured_photo":"legacy_trucks/2016/02/ChicknFix.jpg"}},{"id":6054,"status":"approved","paid":false,"truck":{"name":"Where Ya At Matt","trailer":false,"food_categories":["Southern"],"id":"where-ya-at-matt","uid":9,"featured_photo":"legacy_trucks/2016/02/WhereYaAtMatt.jpg"}}]},{"id":7870,"name":"","description":"","start_time":"2017-07-18T11:00:00.000-07:00","end_time":"2017-07-18T14:00:00.000-07:00","created_at":"2017-06-23T13:04:42.610-07:00","updated_at":"2017-06-23T13:06:29.986-07:00","event_id":43,"bookings":[{"id":6067,"status":"approved","paid":false,"truck":{"name":"Sam Choy's Poke To The Max","trailer":false,"food_categories":["Hawaiian"],"id":"sam-choy-s-poke-to-the-max","uid":6,"featured_photo":"legacy_trucks/2016/02/Poke_To_The_Max.jpg"}},{"id":6062,"status":"approved","paid":false,"truck":{"name":"Snout and Co","trailer":false,"food_categories":["BBQ","Sandwiches","Caribbean"],"id":"snout-and-co","uid":8,"featured_photo":"legacy_trucks/2016/02/Snout_And_Co.jpg"}}]},{"id":7871,"name":"","description":"","start_time":"2017-07-19T11:00:00.000-07:00","end_time":"2017-07-19T14:00:00.000-07:00","created_at":"2017-06-23T13:04:42.760-07:00","updated_at":"2017-06-23T13:07:20.126-07:00","event_id":43,"bookings":[{"id":6075,"status":"approved","paid":false,"truck":{"name":"El Cabrito Oaxaca","trailer":false,"food_categories":["Mexican"],"id":"el-cabrito-oaxaca","uid":68,"featured_photo":"legacy_trucks/2016/04/ElCabrito.jpg"}},{"id":6071,"status":"approved","paid":false,"truck":{"name":"NOSH","trailer":false,"food_categories":["Seafood"],"id":"nosh","uid":10,"featured_photo":"user_uploads/trucks/ca6bc8c0-47ba-11e7-ae01-c313a2bc3ee7-correct-2.jpg"}}]},{"id":7872,"name":"","description":"","start_time":"2017-07-20T11:00:00.000-07:00","end_time":"2017-07-20T14:00:00.000-07:00","created_at":"2017-06-23T13:04:42.950-07:00","updated_at":"2017-06-23T13:07:56.865-07:00","event_id":43,"bookings":[{"id":6083,"status":"approved","paid":false,"truck":{"name":"Seattle Chicken Over Rice","trailer":false,"food_categories":["Mediterranean"],"id":"seattle-chicken-over-rice","uid":18,"featured_photo":"legacy_trucks/2016/02/ChickenOverRice.jpg"}},{"id":6079,"status":"approved","paid":false,"truck":{"name":"BeezNeez Gourmet Sausages","trailer":true,"food_categories":["Hot Dogs"],"id":"beezneez-gourmet-sausages","uid":46,"featured_photo":"user_uploads/trucks/5c2643c0-4c6c-11e7-a971-c94b800af6df-img_5157.jpg"}}]},{"id":7873,"name":"","description":"","start_time":"2017-07-21T11:00:00.000-07:00","end_time":"2017-07-21T14:00:00.000-07:00","created_at":"2017-06-23T13:04:43.032-07:00","updated_at":"2017-06-23T13:08:31.823-07:00","event_id":43,"bookings":[{"id":6091,"status":"approved","paid":false,"truck":{"name":"Bomba Fusion","trailer":false,"food_categories":["Asian","Mexican"],"id":"bomba-fusion","uid":22,"featured_photo":"legacy_trucks/2016/02/BombaFusion.jpg"}},{"id":6087,"status":"approved","paid":false,"truck":{"name":"Hallava Falafel","trailer":false,"food_categories":["Mediterranean","Sandwiches","Vegetarian"],"id":"hallava-falafel","uid":7,"featured_photo":"legacy_trucks/2016/02/Hallava.jpg"}}]},{"id":7874,"name":"","description":"","start_time":"2017-07-24T11:00:00.000-07:00","end_time":"2017-07-24T14:00:00.000-07:00","created_at":"2017-06-23T13:04:43.106-07:00","updated_at":"2017-06-23T13:05:36.025-07:00","event_id":43,"bookings":[{"id":6059,"status":"approved","paid":false,"truck":{"name":"Chick'n Fix","trailer":false,"food_categories":[],"id":"chickn-fix","uid":21,"featured_photo":"legacy_trucks/2016/02/ChicknFix.jpg"}},{"id":6055,"status":"approved","paid":false,"truck":{"name":"Where Ya At Matt","trailer":false,"food_categories":["Southern"],"id":"where-ya-at-matt","uid":9,"featured_photo":"legacy_trucks/2016/02/WhereYaAtMatt.jpg"}}]},{"id":7875,"name":"","description":"","start_time":"2017-07-25T11:00:00.000-07:00","end_time":"2017-07-25T14:00:00.000-07:00","created_at":"2017-06-23T13:04:43.270-07:00","updated_at":"2017-06-23T13:06:33.490-07:00","event_id":43,"bookings":[{"id":6068,"status":"approved","paid":false,"truck":{"name":"Sam Choy's Poke To The Max","trailer":false,"food_categories":["Hawaiian"],"id":"sam-choy-s-poke-to-the-max","uid":6,"featured_photo":"legacy_trucks/2016/02/Poke_To_The_Max.jpg"}},{"id":6063,"status":"approved","paid":false,"truck":{"name":"Snout and Co","trailer":false,"food_categories":["BBQ","Sandwiches","Caribbean"],"id":"snout-and-co","uid":8,"featured_photo":"legacy_trucks/2016/02/Snout_And_Co.jpg"}}]},{"id":7876,"name":"","description":"","start_time":"2017-07-26T11:00:00.000-07:00","end_time":"2017-07-26T14:00:00.000-07:00","created_at":"2017-06-23T13:04:43.405-07:00","updated_at":"2017-06-23T13:07:23.364-07:00","event_id":43,"bookings":[{"id":6076,"status":"approved","paid":false,"truck":{"name":"El Cabrito Oaxaca","trailer":false,"food_categories":["Mexican"],"id":"el-cabrito-oaxaca","uid":68,"featured_photo":"legacy_trucks/2016/04/ElCabrito.jpg"}},{"id":6072,"status":"approved","paid":false,"truck":{"name":"NOSH","trailer":false,"food_categories":["Seafood"],"id":"nosh","uid":10,"featured_photo":"user_uploads/trucks/ca6bc8c0-47ba-11e7-ae01-c313a2bc3ee7-correct-2.jpg"}}]},{"id":7877,"name":"","description":"","start_time":"2017-07-27T11:00:00.000-07:00","end_time":"2017-07-27T14:00:00.000-07:00","created_at":"2017-06-23T13:04:43.505-07:00","updated_at":"2017-06-23T13:07:59.940-07:00","event_id":43,"bookings":[{"id":6084,"status":"approved","paid":false,"truck":{"name":"Seattle Chicken Over Rice","trailer":false,"food_categories":["Mediterranean"],"id":"seattle-chicken-over-rice","uid":18,"featured_photo":"legacy_trucks/2016/02/ChickenOverRice.jpg"}},{"id":6080,"status":"approved","paid":false,"truck":{"name":"BeezNeez Gourmet Sausages","trailer":true,"food_categories":["Hot Dogs"],"id":"beezneez-gourmet-sausages","uid":46,"featured_photo":"user_uploads/trucks/5c2643c0-4c6c-11e7-a971-c94b800af6df-img_5157.jpg"}}]},{"id":7878,"name":"","description":"","start_time":"2017-07-28T11:00:00.000-07:00","end_time":"2017-07-28T14:00:00.000-07:00","created_at":"2017-06-23T13:04:43.572-07:00","updated_at":"2017-06-23T13:08:35.236-07:00","event_id":43,"bookings":[{"id":6092,"status":"approved","paid":false,"truck":{"name":"Bomba Fusion","trailer":false,"food_categories":["Asian","Mexican"],"id":"bomba-fusion","uid":22,"featured_photo":"legacy_trucks/2016/02/BombaFusion.jpg"}},{"id":6088,"status":"approved","paid":false,"truck":{"name":"Hallava Falafel","trailer":false,"food_categories":["Mediterranean","Sandwiches","Vegetarian"],"id":"hallava-falafel","uid":7,"featured_photo":"legacy_trucks/2016/02/Hallava.jpg"}}]}]}